<?xml version="1.0" standalone="no"?>
<!DOCTYPE svg PUBLIC "-//W3C//DTD SVG 20010904//EN"
 "http://www.w3.org/TR/2001/REC-SVG-20010904/DTD/svg10.dtd">
<svg version="1.0" xmlns="http://www.w3.org/2000/svg"
 width="344.000000pt" height="344.000000pt" viewBox="0 0 344.000000 344.000000"
 preserveAspectRatio="xMidYMid meet">
<metadata>
Created by potrace 1.15, written by Peter Selinger 2001-2017
</metadata>
<g transform="translate(0.000000,344.000000) scale(0.100000,-0.100000)"
fill="#000000" stroke="none">
<path d="M1495 3434 c-201 -30 -368 -80 -533 -159 -481 -231 -810 -651 -934
-1193 -22 -96 -22 -108 -25 -1090 l-4 -992 92 0 92 0 698 427 698 427 3 425
c4 472 5 477 74 617 89 180 257 317 454 371 99 27 273 24 370 -6 253 -78 435
-262 502 -510 19 -69 21 -113 27 -496 l6 -420 213 -375 213 -375 -4 950 c-3
938 -3 951 -25 1047 -157 686 -652 1181 -1330 1329 -80 17 -138 22 -327 24
-126 2 -243 1 -260 -1z"/>
<path d="M1177 363 l-465 -358 1221 -3 c671 -1 1221 -1 1223 1 1 1 -45 162
-104 357 l-107 355 -651 3 -652 2 -465 -357z"/>
</g>
</svg>
